<svg width="24" height="24" viewBox="0 0 24 24" fill="none" xmlns="http://www.w3.org/2000/svg">
<path d="M19.8831 22.0828C17.5901 24.3758 11.718 22.2213 6.76728 17.2705C1.81657 12.3198 -0.337955 6.4477 1.955 4.15474L3.46473 2.645C4.50699 1.60275 6.22437 1.6303 7.30061 2.70654L9.63905 5.04498C10.7153 6.12122 10.7428 7.8386 9.70059 8.88086L9.37632 9.20513C8.81359 9.76786 8.75853 10.6757 9.28141 11.3093C9.78576 11.9205 10.3295 12.5292 10.919 13.1188C11.5086 13.7083 12.1174 14.2521 12.7285 14.7564C13.3622 15.2793 14.27 15.2242 14.8327 14.6615L15.157 14.3372C16.1992 13.295 17.9166 13.3225 18.9928 14.3988L21.3313 16.7372C22.4075 17.8135 22.4351 19.5308 21.3928 20.5731L19.8831 22.0828Z" stroke="#666666" stroke-width="2"/>
<path d="M18.1988 8.92044C17.9125 8.22213 17.4859 7.56788 16.9188 7.00087C16.3839 6.46587 15.7712 6.05585 15.1171 5.77079" stroke="#666666" stroke-width="2" stroke-linecap="round"/>
<path d="M15.1172 1.77828C16.6831 2.34556 18.1523 3.2569 19.4077 4.51229C20.6946 5.79919 21.62 7.31078 22.1838 8.92087" stroke="#666666" stroke-width="2" stroke-linecap="round"/>
</svg>
